2024-06-26 01:28:22 ERROR [io.qu.ru.Application] (Quarkus Main Thread) Failed to start application (with profile [dev]): java.lang.RuntimeException: Failed to start quarkus
	at io.quarkus.runner.ApplicationImpl.doStart(Unknown Source)
	at io.quarkus.runtime.Application.start(Application.java:101)
	at io.quarkus.runtime.ApplicationLifecycleManager.run(ApplicationLifecycleManager.java:111)
	at io.quarkus.runtime.Quarkus.run(Quarkus.java:71)
	at io.quarkus.runtime.Quarkus.run(Quarkus.java:44)
	at io.quarkus.runtime.Quarkus.run(Quarkus.java:124)
	at io.quarkus.runner.GeneratedMain.main(Unknown Source)
	at java.base/jdk.internal.reflect.DirectMethodHandleAccessor.invoke(DirectMethodHandleAccessor.java:103)
	at java.base/java.lang.reflect.Method.invoke(Method.java:580)
	at io.quarkus.runner.bootstrap.StartupActionImpl$1.run(StartupActionImpl.java:113)
	at java.base/java.lang.Thread.run(Thread.java:1583)
Caused by: java.lang.NoSuchMethodError: 'java.lang.Iterable jakarta.enterprise.inject.Instance.handles()'
	at io.quarkus.vertx.http.runtime.security.AbstractPathMatchingHttpSecurityPolicy.toNamedHttpSecPolicies(AbstractPathMatchingHttpSecurityPolicy.java:210)
	at io.quarkus.vertx.http.runtime.security.AbstractPathMatchingHttpSecurityPolicy.<init>(AbstractPathMatchingHttpSecurityPolicy.java:47)
	at io.quarkus.vertx.http.runtime.security.PathMatchingHttpSecurityPolicy.<init>(PathMatchingHttpSecurityPolicy.java:23)
	at io.quarkus.vertx.http.runtime.security.PathMatchingHttpSecurityPolicy_Bean.doCreate(Unknown Source)
	at io.quarkus.vertx.http.runtime.security.PathMatchingHttpSecurityPolicy_Bean.create(Unknown Source)
	at io.quarkus.vertx.http.runtime.security.PathMatchingHttpSecurityPolicy_Bean.create(Unknown Source)
	at io.quarkus.arc.impl.AbstractSharedContext.createInstanceHandle(AbstractSharedContext.java:119)
	at io.quarkus.arc.impl.AbstractSharedContext$1.get(AbstractSharedContext.java:38)
	at io.quarkus.arc.impl.AbstractSharedContext$1.get(AbstractSharedContext.java:35)
	at io.quarkus.arc.impl.LazyValue.get(LazyValue.java:32)
	at io.quarkus.arc.impl.ComputingCache.computeIfAbsent(ComputingCache.java:69)
	at io.quarkus.arc.impl.ComputingCacheContextInstances.computeIfAbsent(ComputingCacheContextInstances.java:19)
	at io.quarkus.arc.impl.AbstractSharedContext.get(AbstractSharedContext.java:35)
	at io.quarkus.vertx.http.runtime.security.PathMatchingHttpSecurityPolicy_Bean.get(Unknown Source)
	at io.quarkus.vertx.http.runtime.security.PathMatchingHttpSecurityPolicy_Bean.get(Unknown Source)
	at io.quarkus.arc.impl.InstanceImpl.getBeanInstance(InstanceImpl.java:325)
	at io.quarkus.arc.impl.InstanceImpl.getInternal(InstanceImpl.java:309)
	at io.quarkus.arc.impl.InstanceImpl.get(InstanceImpl.java:190)
	at io.quarkus.vertx.http.runtime.security.HttpSecurityRecorder$AuthenticationHandler.init(HttpSecurityRecorder.java:362)
	at io.quarkus.vertx.http.runtime.security.HttpSecurityRecorder.initializeHttpAuthenticatorHandler(HttpSecurityRecorder.java:65)
	at io.quarkus.deployment.steps.HttpSecurityProcessor$initializeAuthenticationHandler1617165243.deploy_0(Unknown Source)
	at io.quarkus.deployment.steps.HttpSecurityProcessor$initializeAuthenticationHandler1617165243.deploy(Unknown Source)
	... 11 more

2024-06-26 01:28:22 INFO  [io.qu.de.de.IsolatedDevModeMain] (main) Attempting to start live reload endpoint to recover from previous Quarkus startup failure
